Tidy Tuesday Week 5: County Data
…
How many counties does each state have?

county_data %>% count(State) %>% arrange(desc(n))

## # A tibble: 52 x 2
##    State              n
##    <fct>          <int>
##  1 Texas            254
##  2 Georgia          159
##  3 Virginia         133
##  4 Kentucky         120
##  5 Missouri         115
##  6 Kansas           105
##  7 Illinois         102
##  8 North Carolina   100
##  9 Iowa              99
## 10 Tennessee         95
## # ... with 42 more rows
…
